{
  "contacts": [
    {
      "id": "test123",
      "name": "test",
      "email": "test@test.test",
      "createdAt": "2019-11-24T12:59:17.905Z",
      "lastModifiedAt": "2019-11-24T13:01:17.505Z"
    }
  ]
}